Working with Survey Samples in the Tidyverse
…
## # A tibble: 3 x 2
##   parent children         
##   <chr>  <list>           
## 1 10s    <tibble [10 × 1]>
## 2 20s    <tibble [10 × 1]>
## 3 30s    <tibble [10 × 1]>

And dplyr’s nest()/unnest() functions do all the hard-work of packing/unpacking data to allow us to move up and down the grouping hierarchy.

Unnesting moves us down:

(tmp <- ex %>% unnest(children))

## # A tibble: 30 x 2
##    parent     x
##    <chr>  <int>
##  1 10s       10
##  2 10s       11
##  3 10s       12
##  4 10s       13
##  5 10s       14
##  6 10s       15
##  7 10s       16
##  8 10s       17
##  9 10s       18
## 10 10s       19
## # … with 20 more rows
…
It should be easy to see how this could help when working with nested populations.

Sampling

We’re now ready to dive into sampling.

Simple Random Sampling

Simple random sampling is the cornerstone foundation of all sample designs. It’s implemented in dplyr using sample_n(). Here’s a draw of 1000 households:

universe %>% sample_n(size = 1000)

## # A tibble: 1,000 x 5
##    strata         ea    hh    safety    pcexp
##    <chr>          <chr> <chr> <chr>     <dbl>
##  1 Host community 128   12486 Safe     11196.
##  2 Host community 308   30522 Safe      5842.
##  3 Refugees       264   26485 Not safe  3529.
##  4 Host community 625   62127 Not safe  8179.
##  5 Host community 667   66311 Safe      9265.
##  6 Host community 259   25738 Safe     10715.
##  7 Host community 354   34970 Safe     11805.
##  8 Host community 172   16941 Safe      6745.
##  9 Host community 130   12736 Safe      9834.
## 10 Host community 476   47157 Safe     10941.
## # … with 990 more rows
…
universe %>% 
  # partition the population into strata
  group_nest(strata) %>% 
  # for each stratum...
  rowwise() %>% 
  mutate(
    # calculate the required sample size
    samplesz = round(1000*nrow(data)/nrow(universe)),
    # then draw the sample
    sample = list(sample_n(data, size = samplesz))) %>% 
  select(-c(data, samplesz)) %>% 
  # et voila!
  unnest(sample)

## # A tibble: 1,000 x 5
##    strata         ea    hh    safety    pcexp
##    <chr>          <chr> <chr> <chr>     <dbl>
##  1 Host community 628   62409 Not safe 12276.
##  2 Host community 110   10667 Not safe  7144.
##  3 Host community 455   44932 Safe      9399.
##  4 Host community 125   12189 Not safe  7934.
##  5 Host community 584   57910 Safe      9732.
##  6 Host community 301   29859 Safe      9707.
##  7 Host community 455   44944 Safe      6846.
##  8 Host community 309   30631 Not safe  9303.
##  9 Host community 100   09825 Safe      8350.
## 10 Host community 289   28624 Safe      7961.
## # … with 990 more rows
That’s it for stratified sampling! For disproportionate stratification, just make sure to adjust samplesz accordingly.

Cluster Sampling

Clustering is fairly similar except this time we sample from the grouped table rather than within it.

universe %>% 
  # group the population by cluster
  group_nest(ea) %>% 
  # draw the desired number of clusters
  sample_n(size = 10) %>% 
  # and revert to a form that we can work with.
  unnest(data)

## # A tibble: 1,672 x 5
##    ea    strata         hh    safety    pcexp
##    <chr> <chr>          <chr> <chr>     <dbl>
##  1 634   Host community 62829 Not safe  9626.
##  2 634   Host community 62830 Not safe  8277.
##  3 634   Host community 62831 Not safe 12510.
##  4 634   Host community 62832 Not safe 11408.
##  5 634   Host community 62833 Not safe 11559.
##  6 634   Host community 62834 Not safe  9817.
##  7 634   Host community 62835 Safe     10844.
##  8 634   Host community 62836 Not safe 13357.
##  9 634   Host community 62837 Safe     10284.
## 10 634   Host community 62838 Not safe 13240.
## # … with 1,662 more rows
…
  s <- 
    stage2 %>% 
    mutate(
      p1 = psusz/stratasz, p2 = hh_per_cluster/psusz,
      p = p1 * p2,
      wt = 1/p, wt = wt/sum(wt) * length(wt)) %>% 
    select(-stratasz, -psusz, -p1, -p2, -p)
  
  s
}

(s <- mssample(universe))

## # A tibble: 1,000 x 6
##    strata         ea    hh    safety    pcexp    wt
##    <chr>          <chr> <chr> <chr>     <dbl> <dbl>
##  1 Host community 039   03884 Not safe 10981.  1.33
##  2 Host community 039   03852 Not safe  7743.  1.33
##  3 Host community 039   03909 Not safe  9167.  1.33
##  4 Host community 039   03886 Safe     10630.  1.33
##  5 Host community 039   03811 Safe     12105.  1.33
##  6 Host community 039   03802 Not safe  9659.  1.33
##  7 Host community 039   03923 Not safe  9134.  1.33
##  8 Host community 039   03794 Not safe 11369.  1.33
##  9 Host community 039   03835 Safe      8881.  1.33
## 10 Host community 039   03915 Safe     10969.  1.33
## # … with 990 more rows
…
