rhdx: a R package to interact with HDX
…
We select the first resource and read it directly in R

library(rhxl)
search_datasets("ACLED Mali", rows = 2) %>%
  nth(1) %>%
  get_resource(1) %>%
  read_resource(filename = "acled_mali.csv", hxl = TRUE)

## # A tibble: 3,221 x 31
##    data_id   iso event_id_cnty event_id_no_cnty event_date  year time_precision
##      <dbl> <dbl> <chr>                    <dbl> <date>     <dbl>          <dbl>
##  1 6404732   466 MLI3331                   3331 2019-12-07  2019              1
##  2 6405002   466 MLI3330                   3330 2019-12-07  2019              1
##  3 6404731   466 MLI3329                   3329 2019-12-06  2019              1
##  4 6404942   466 MLI3328                   3328 2019-12-05  2019              1
##  5 6404990   466 MLI3326                   3326 2019-12-05  2019              1
##  6 6404816   466 MLI3327                   3327 2019-12-05  2019              1
##  7 6404729   466 MLI3324                   3324 2019-12-04  2019              1
##  8 6404730   466 MLI3325                   3325 2019-12-04  2019              1
##  9 6404771   466 MLI3323                   3323 2019-12-03  2019              1
## 10 6404726   466 MLI3320                   3320 2019-12-02  2019              1
## # … with 3,211 more rows, and 24 more variables: event_type <chr>,
## #   sub_event_type <chr>, actor1 <chr>, assoc_actor_1 <chr>, inter1 <dbl>,
## #   actor2 <chr>, assoc_actor_2 <chr>, inter2 <dbl>, interaction <dbl>,
## #   region <chr>, country <chr>, admin1 <chr>, admin2 <chr>, admin3 <chr>,
## #   location <chr>, latitude <dbl>, longitude <dbl>, geo_precision <dbl>,
## #   source <chr>, source_scale <chr>, notes <chr>, fatalities <dbl>,
## #   timestamp <dbl>, iso3 <chr>
…
search_datasets("ACLED Mali", rows = 2) %>%
  nth(1) %>%
  get_resource(1) %>%
  read_resource(filename = "acled_mali.csv", hxl = TRUE) -> acled_mali

Now let’s see where we have these conflicts in Mali

First step: just select the coordinates

acled_mali %>%
  select(longitude, latitude) %>%
  distinct() -> acled_mali_coord
acled_mali_coord

## # A tibble: 745 x 2
##    longitude latitude
##        <dbl>    <dbl>
##  1     1.46      15.8
##  2    -2.22      15.1
##  3    -3.75      14.2
##  4    -3.31      14.4
##  5     0.502     15.7
##  6    -3.78      14.1
##  7     0.696     15.0
##  8    -0.349     17.0
##  9     0.717     15.3
## 10    -2.57      14.3
## # … with 735 more rows
…
